id;Nama;Age;Balanced;Previous Balanced;Average Balanced;Free Transfer
1;Liam;36;197;164;180.5;27
2;Noah;39;185;71;128;5
3;Oliver;51;78;81;79.5;4
4;Elijah;39;52;106;79;1
5;William;34;116;61;88.5;4
6;James;30;67;142;104.5;5
7;Benjamin;46;190;126;158;28
8;Lucas;24;120;191;155.5;25
9;Henry;37;182;104;143;5
10;Alexander;44;186;143;164.5;27
11;Mason;21;165;182;173.5;25
12;Michael;31;157;149;153;27
13;Ethan;41;110;180;145;5
14;Daniel;44;99;84;91.5;3
15;Jacob;28;76;181;128.5;5
16;Logan;21;75;173;124;5
17;Jackson;37;145;116;130.5;5
18;Levi;29;57;83;70;2
19;Sebastian;33;142;88;115;5
20;Mateo;47;196;200;198;28
21;Jack;37;160;119;139.5;5
22;Owen;43;55;65;60;4
23;Theodore;32;181;102;141.5;5
24;Aiden;50;118;128;123;5
25;Samuel;39;83;64;73.5;3
26;Joseph;52;158;123;140.5;5
27;John;49;188;104;146;5
28;David;47;124;139;131.5;5
29;Wyatt;40;84;119;101.5;5
30;Matthew;39;57;64;60.5;1
31;Luke;26;144;82;113;5
32;Asher;30;133;73;103;5
33;Carter;45;151;191;171;25
34;Julian;48;101;152;126.5;5
35;Grayson;31;120;150;135;5
36;Leo;34;180;175;177.5;26
37;Jayden;21;51;179;115;5
38;Gabriel;46;57;129;93;0
39;Isaac;45;132;82;107;5
40;Lincoln;24;135;152;143.5;5
41;Anthony;27;157;177;167;27
42;Hudson;45;88;105;96.5;3
43;Dylan;29;199;182;190.5;27
44;Ezra;22;65;177;121;5
45;Thomas;31;80;93;86.5;3
46;Charles;44;79;127;103;5
47;Christopher;31;194;122;158;28
48;Jaxon;41;64;128;96;1
49;Maverick;40;66;147;106.5;5
50;Josiah;43;145;74;109.5;5
51;Isaiah;20;185;152;168.5;27
52;Andrew;51;149;137;143;5
53;Elias;45;180;102;141;5
54;Joshua;46;123;100;111.5;5
55;Nathan;53;119;118;118.5;5
56;Caleb;23;156;122;139;5
57;Ryan;33;167;64;115.5;5
58;Adrian;40;156;77;116.5;5
59;Miles;32;114;134;124;5
60;Eli;23;62;170;116;5
61;Nolan;20;122;91;106.5;5
62;Christian;21;181;81;131;5
63;Aaron;21;145;124;134.5;5
64;Cameron;29;194;174;184;26
65;Ezekiel;50;139;112;125.5;5
66;Colton;27;133;154;143.5;5
67;Luca;29;53;96;74.5;4
68;Landon;52;189;100;144.5;5
69;Hunter;36;155;82;118.5;5
70;Jonathan;37;63;171;117;5
71;Santiago;43;118;154;136;5
72;Axel;31;126;95;110.5;5
73;Easton;46;91;168;129.5;5
74;Cooper;43;106;197;151.5;27
75;Jeremiah;30;94;191;142.5;5
76;Angel;28;82;124;103;5
77;Roman;52;110;73;91.5;2
78;Connor;28;97;163;130;5
79;Jameson;48;196;186;191;29
80;Robert;40;123;102;112.5;5
81;Greyson;32;153;155;154;29
82;Jordan;49;108;102;105;5
83;Ian;40;74;136;105;5
84;Carson;41;94;92;93;4
85;Jaxson;44;101;158;129.5;5
86;Leonardo;35;122;104;113;5
87;Nicholas;53;158;62;110;5
88;Dominic;50;113;66;89.5;4
89;Austin;21;120;96;108;5
90;Everett;51;95;190;142.5;5
91;Brooks;20;158;103;130.5;5
92;Xavier;20;126;103;114.5;5
93;Kai;39;187;64;125.5;5
94;Jose;38;129;148;138.5;5
95;Parker;39;144;154;149;5
96;Adam;39;132;59;95.5;2
97;Jace;28;177;160;168.5;28
98;Wesley;44;137;70;103.5;5
99;Kayden;29;86;50;68;1
100;Silas;30;123;86;104.5;5
101;Bennett;50;50;178;114;5
102;Declan;24;53;134;93.5;4
103;Waylon;37;99;84;91.5;4
104;Weston;47;51;148;99.5;3
105;Evan;29;182;199;190.5;26
106;Emmett;23;71;191;131;5
107;Micah;50;199;51;125;5
108;Ryder;46;89;167;128;5
109;Beau;31;77;52;64.5;2
110;Damian;28;64;177;120.5;5
111;Brayden;26;189;173;181;28
112;Gael;45;140;119;129.5;5
113;Rowan;52;121;159;140;5
114;Harrison;39;172;136;154;29
115;Bryson;49;50;177;113.5;5
116;Sawyer;47;127;93;110;5
117;Amir;25;85;59;72;0
118;Kingston;42;50;167;108.5;5
119;Jason;35;88;51;69.5;3
120;Giovanni;39;105;111;108;5
121;Vincent;25;135;51;93;1
122;Ayden;39;122;168;145;5
123;Chase;48;135;153;144;5
124;Myles;40;138;80;109;5
125;Diego;24;117;64;90.5;3
126;Nathaniel;42;137;197;167;28
127;Legend;21;96;103;99.5;2
128;Jonah;51;97;95;96;4
129;River;52;176;159;167.5;28
130;Tyler;20;66;142;104;5
131;Cole;29;55;165;110;5
132;Braxton;23;160;80;120;5
133;George;39;123;65;94;1
134;Milo;29;181;198;189.5;26
135;Zachary;29;78;78;78;0
136;Ashton;23;59;61;60;4
137;Luis;53;134;74;104;5
138;Jasper;50;102;122;112;5
139;Kaiden;23;185;165;175;25
140;Adriel;28;104;53;78.5;3
141;Gavin;26;179;117;148;5
142;Bentley;49;134;195;164.5;25
143;Calvin;42;145;200;172.5;27
144;Zion;48;67;57;62;4
145;Juan;45;129;115;122;5
146;Maxwell;34;58;189;123.5;5
147;Max;30;155;156;155.5;28
148;Ryker;29;137;104;120.5;5
149;Carlos;22;112;179;145.5;5
150;Emmanuel;43;110;119;114.5;5
151;Jayce;44;90;126;108;5
152;Lorenzo;47;137;105;121;5
153;Ivan;42;70;139;104.5;5
154;Jude;49;66;121;93.5;0
155;August;27;147;76;111.5;5
156;Kevin;40;131;110;120.5;5
157;Malachi;20;86;69;77.5;4
158;Elliott;39;181;147;164;27
159;Rhett;45;175;156;165.5;26
160;Archer;24;177;69;123;5
161;Karter;42;113;52;82.5;4
162;Arthur;40;161;82;121.5;5
163;Luka;20;119;73;96;3
164;Elliot;24;139;58;98.5;4
165;Thiago;23;78;68;73;4
166;Brandon;27;116;120;118;5
167;Camden;45;139;148;143.5;5
168;Justin;22;109;98;103.5;5
169;Jesus;25;200;94;147;5
170;Maddox;27;128;148;138;5
171;King;32;99;183;141;5
172;Theo;28;52;84;68;1
173;Enzo;39;132;60;96;4
174;Matteo;30;58;192;125;5
175;Emiliano;51;177;144;160.5;29
176;Dean;45;177;191;184;25
177;Hayden;39;118;195;156.5;28
178;Finn;34;122;79;100.5;5
179;Brody;52;59;190;124.5;5
180;Antonio;32;154;62;108;5
181;Abel;40;148;188;168;28
182;Alex;34;76;67;71.5;2
183;Tristan;30;131;119;125;5
184;Graham;51;93;61;77;1
185;Zayden;31;91;102;96.5;4
186;Judah;27;137;113;125;5
187;Xander;44;65;159;112;5
188;Miguel;35;152;112;132;5
189;Atlas;48;145;144;144.5;5
190;Messiah;27;67;66;66.5;2
191;Barrett;21;88;144;116;5
192;Tucker;25;179;185;182;28
193;Timothy;32;132;63;97.5;1
194;Alan;40;97;51;74;4
195;Edward;45;137;104;120.5;5
196;Leon;53;65;197;131;5
197;Dawson;24;107;151;129;5
198;Eric;47;130;73;101.5;5
199;Ace;32;167;101;134;5
200;Victor;53;60;148;104;5
